[
  {"r": 214, "g":227, "b":233, "height": 0},
  {"r": 0, "g":102, "b":51, "height": 0},
  {"r": 185, "g":218, "b":124, "height": 100},
  {"r": 255, "g":249, "b":116, "height": 350},
  {"r": 240, "g":155, "b":74, "height": 1000},
  {"r": 185, "g":118, "b":65, "height": 2750},
  {"r": 100, "g":78, "b":55, "height": 7000}
]